0.346408
0.349053
0.351513
0.353807
0.355951
0.357957
0.346033
0.348664
0.351113
0.353395
0.355528
0.357524
0.348276
0.350712
0.352983
0.355104
0.357091
0.347887
0.350311
0.35257
0.354681
0.356658
0.347499
0.34991
0.352158
0.354258
0.356225
0.34711
0.349509
0.351746
0.353835
0.355791
0.346721
0.349108
0.351333
0.353412
0.355358
0.346333
0.348707
0.350921
0.352989
0.354925
0.345944
0.348306
0.350508
0.352566
0.354492
0.345556
0.347905
0.350096
0.352143
0.354059
0.345167
0.347504
0.349684
0.35172
0.353626
0.344778
0.347103
0.349271
0.351297
0.353193
0.34439
0.346703
0.348859
0.350874
0.35276
0.344001
0.346302
0.348447
0.35045
0.352326
0.343613
0.345901
0.348034
0.350027
0.351893
0.343224
0.3455
0.347622
0.349604
0.35146
0.342835
0.345099
0.347209
0.349181
0.351027
0.342447
0.344698
0.346797
0.348758
0.350594
0.342058
0.344297
0.346385
0.348335
0.350161
0.34167
0.343896
0.345972
0.347912
0.349728
0.341281
0.343495
0.34556
0.347489
0.349295
0.340892
0.343094
0.345147
0.347066
0.348861
0.340504
0.342694
0.344735
0.346643
0.348428
0.340115
0.342293
0.344323
0.34622
0.347995
0.339727
0.341892
0.34391
0.345796
0.347562
0.339338
0.341491
0.343498
0.345373
0.347129
0.338949
0.34109
0.343086
0.34495
0.346696
0.338561
0.340689
0.342673
0.344527
0.346263
0.340288
0.342261
0.344104
0.34583
0.339887
0.341848
0.343681
0.345396
0.339486
0.341436
0.343258
0.344963
0.339085
0.341024
0.342835
0.34453
0.338684
0.340611
0.342412
0.344097
0.338284
0.340199
0.341989
0.343664
0.337883
0.339787
0.341565
0.343231
0.337482
0.339374
0.341142
0.342798
0.337081
0.338962
0.340719
0.342365
0.33668
0.338549
0.340296
0.341931
0.336279
0.338137
0.339873
0.341498
0.335878
0.337725
0.33945
0.341065
0.335477
0.337312
0.339027
0.340632
0.335076
0.3369
0.338604
0.340199
0.334675
0.336488
0.338181
0.339766
0.334274
0.336075
0.337758
0.339333
0.333874
0.335663
0.337335
0.3389
0.333473
0.33525
0.336911
0.338466
0.333072
0.334838
0.336488
0.338033
0.332671
0.334426
0.336065
0.3376
0.334013
0.335642
0.337167
0.333601
0.335219
0.336734
0.333189
0.334796
0.336301
0.332776
0.334373
0.335868
0.332364
0.33395
0.335435
0.331951
0.333527
0.335001
0.331539
0.333104
0.334568
0.331127
0.332681
0.334135
0.330714
0.332257
0.333702
0.330302
0.331834
0.333269
0.32989
0.331411
0.332836
0.329477
0.330988
0.332403
0.329065
0.330565
0.33197
0.328652
0.330142
0.331536
0.32824
0.329719
0.331103
0.327828
0.329296
0.33067
0.328873
0.330237
0.32845
0.329804
0.328027
0.329371
0.327603
0.328938
0.32718
0.328505
0.326757
0.328071
0.326334
0.327638
0.325911
0.327205
0.325488
0.326772
0.325065
0.326339
0.324642
0.325906
0.324219
0.325473
0.323796
0.32504
0.324606
0.324173
0.32374
0.323307
0.322874
0.322441
0.322008
0.321575
0.321141
0.320708
0.320275
