0.800	1.000	0.200	2.400
0.800	1.000	0.200	2.500
0.800	1.000	0.200	2.600
0.800	1.000	0.200	2.700
0.800	1.000	0.200	2.800
0.800	1.000	0.200	2.900
0.801	1.000	0.199	2.400
0.801	1.000	0.199	2.500
0.801	1.000	0.199	2.600
0.801	1.000	0.199	2.700
0.801	1.000	0.199	2.800
0.801	1.000	0.199	2.900
0.802	1.000	0.198	2.500
0.802	1.000	0.198	2.600
0.802	1.000	0.198	2.700
0.802	1.000	0.198	2.800
0.802	1.000	0.198	2.900
0.803	1.000	0.197	2.500
0.803	1.000	0.197	2.600
0.803	1.000	0.197	2.700
0.803	1.000	0.197	2.800
0.803	1.000	0.197	2.900
0.804	1.000	0.196	2.500
0.804	1.000	0.196	2.600
0.804	1.000	0.196	2.700
0.804	1.000	0.196	2.800
0.804	1.000	0.196	2.900
0.805	1.000	0.195	2.500
0.805	1.000	0.195	2.600
0.805	1.000	0.195	2.700
0.805	1.000	0.195	2.800
0.805	1.000	0.195	2.900
0.806	1.000	0.194	2.500
0.806	1.000	0.194	2.600
0.806	1.000	0.194	2.700
0.806	1.000	0.194	2.800
0.806	1.000	0.194	2.900
0.807	1.000	0.193	2.500
0.807	1.000	0.193	2.600
0.807	1.000	0.193	2.700
0.807	1.000	0.193	2.800
0.807	1.000	0.193	2.900
0.808	1.000	0.192	2.500
0.808	1.000	0.192	2.600
0.808	1.000	0.192	2.700
0.808	1.000	0.192	2.800
0.808	1.000	0.192	2.900
0.809	1.000	0.191	2.500
0.809	1.000	0.191	2.600
0.809	1.000	0.191	2.700
0.809	1.000	0.191	2.800
0.809	1.000	0.191	2.900
0.810	1.000	0.190	2.500
0.810	1.000	0.190	2.600
0.810	1.000	0.190	2.700
0.810	1.000	0.190	2.800
0.810	1.000	0.190	2.900
0.811	1.000	0.189	2.500
0.811	1.000	0.189	2.600
0.811	1.000	0.189	2.700
0.811	1.000	0.189	2.800
0.811	1.000	0.189	2.900
0.812	1.000	0.188	2.500
0.812	1.000	0.188	2.600
0.812	1.000	0.188	2.700
0.812	1.000	0.188	2.800
0.812	1.000	0.188	2.900
0.813	1.000	0.187	2.500
0.813	1.000	0.187	2.600
0.813	1.000	0.187	2.700
0.813	1.000	0.187	2.800
0.813	1.000	0.187	2.900
0.814	1.000	0.186	2.500
0.814	1.000	0.186	2.600
0.814	1.000	0.186	2.700
0.814	1.000	0.186	2.800
0.814	1.000	0.186	2.900
0.815	1.000	0.185	2.500
0.815	1.000	0.185	2.600
0.815	1.000	0.185	2.700
0.815	1.000	0.185	2.800
0.815	1.000	0.185	2.900
0.816	1.000	0.184	2.500
0.816	1.000	0.184	2.600
0.816	1.000	0.184	2.700
0.816	1.000	0.184	2.800
0.816	1.000	0.184	2.900
0.817	1.000	0.183	2.500
0.817	1.000	0.183	2.600
0.817	1.000	0.183	2.700
0.817	1.000	0.183	2.800
0.817	1.000	0.183	2.900
0.818	1.000	0.182	2.500
0.818	1.000	0.182	2.600
0.818	1.000	0.182	2.700
0.818	1.000	0.182	2.800
0.818	1.000	0.182	2.900
0.819	1.000	0.181	2.500
0.819	1.000	0.181	2.600
0.819	1.000	0.181	2.700
0.819	1.000	0.181	2.800
0.819	1.000	0.181	2.900
0.820	1.000	0.180	2.500
0.820	1.000	0.180	2.600
0.820	1.000	0.180	2.700
0.820	1.000	0.180	2.800
0.820	1.000	0.180	2.900
0.821	1.000	0.179	2.500
0.821	1.000	0.179	2.600
0.821	1.000	0.179	2.700
0.821	1.000	0.179	2.800
0.821	1.000	0.179	2.900
0.822	1.000	0.178	2.500
0.822	1.000	0.178	2.600
0.822	1.000	0.178	2.700
0.822	1.000	0.178	2.800
0.822	1.000	0.178	2.900
0.823	1.000	0.177	2.500
0.823	1.000	0.177	2.600
0.823	1.000	0.177	2.700
0.823	1.000	0.177	2.800
0.823	1.000	0.177	2.900
0.824	1.000	0.176	2.500
0.824	1.000	0.176	2.600
0.824	1.000	0.176	2.700
0.824	1.000	0.176	2.800
0.824	1.000	0.176	2.900
0.825	1.000	0.175	2.500
0.825	1.000	0.175	2.600
0.825	1.000	0.175	2.700
0.825	1.000	0.175	2.800
0.825	1.000	0.175	2.900
0.826	1.000	0.174	2.500
0.826	1.000	0.174	2.600
0.826	1.000	0.174	2.700
0.826	1.000	0.174	2.800
0.826	1.000	0.174	2.900
0.827	1.000	0.173	2.500
0.827	1.000	0.173	2.600
0.827	1.000	0.173	2.700
0.827	1.000	0.173	2.800
0.827	1.000	0.173	2.900
0.828	1.000	0.172	2.600
0.828	1.000	0.172	2.700
0.828	1.000	0.172	2.800
0.828	1.000	0.172	2.900
0.829	1.000	0.171	2.600
0.829	1.000	0.171	2.700
0.829	1.000	0.171	2.800
0.829	1.000	0.171	2.900
0.830	1.000	0.170	2.600
0.830	1.000	0.170	2.700
0.830	1.000	0.170	2.800
0.830	1.000	0.170	2.900
0.831	1.000	0.169	2.600
0.831	1.000	0.169	2.700
0.831	1.000	0.169	2.800
0.831	1.000	0.169	2.900
0.832	1.000	0.168	2.600
0.832	1.000	0.168	2.700
0.832	1.000	0.168	2.800
0.832	1.000	0.168	2.900
0.833	1.000	0.167	2.600
0.833	1.000	0.167	2.700
0.833	1.000	0.167	2.800
0.833	1.000	0.167	2.900
0.834	1.000	0.166	2.600
0.834	1.000	0.166	2.700
0.834	1.000	0.166	2.800
0.834	1.000	0.166	2.900
0.835	1.000	0.165	2.600
0.835	1.000	0.165	2.700
0.835	1.000	0.165	2.800
0.835	1.000	0.165	2.900
0.836	1.000	0.164	2.600
0.836	1.000	0.164	2.700
0.836	1.000	0.164	2.800
0.836	1.000	0.164	2.900
0.837	1.000	0.163	2.600
0.837	1.000	0.163	2.700
0.837	1.000	0.163	2.800
0.837	1.000	0.163	2.900
0.838	1.000	0.162	2.600
0.838	1.000	0.162	2.700
0.838	1.000	0.162	2.800
0.838	1.000	0.162	2.900
0.839	1.000	0.161	2.600
0.839	1.000	0.161	2.700
0.839	1.000	0.161	2.800
0.839	1.000	0.161	2.900
0.840	1.000	0.160	2.600
0.840	1.000	0.160	2.700
0.840	1.000	0.160	2.800
0.840	1.000	0.160	2.900
0.841	1.000	0.159	2.600
0.841	1.000	0.159	2.700
0.841	1.000	0.159	2.800
0.841	1.000	0.159	2.900
0.842	1.000	0.158	2.600
0.842	1.000	0.158	2.700
0.842	1.000	0.158	2.800
0.842	1.000	0.158	2.900
0.843	1.000	0.157	2.600
0.843	1.000	0.157	2.700
0.843	1.000	0.157	2.800
0.843	1.000	0.157	2.900
0.844	1.000	0.156	2.600
0.844	1.000	0.156	2.700
0.844	1.000	0.156	2.800
0.844	1.000	0.156	2.900
0.845	1.000	0.155	2.600
0.845	1.000	0.155	2.700
0.845	1.000	0.155	2.800
0.845	1.000	0.155	2.900
0.846	1.000	0.154	2.600
0.846	1.000	0.154	2.700
0.846	1.000	0.154	2.800
0.846	1.000	0.154	2.900
0.847	1.000	0.153	2.600
0.847	1.000	0.153	2.700
0.847	1.000	0.153	2.800
0.847	1.000	0.153	2.900
0.848	1.000	0.152	2.700
0.848	1.000	0.152	2.800
0.848	1.000	0.152	2.900
0.849	1.000	0.151	2.700
0.849	1.000	0.151	2.800
0.849	1.000	0.151	2.900
0.850	1.000	0.150	2.700
0.850	1.000	0.150	2.800
0.850	1.000	0.150	2.900
0.851	1.000	0.149	2.700
0.851	1.000	0.149	2.800
0.851	1.000	0.149	2.900
0.852	1.000	0.148	2.700
0.852	1.000	0.148	2.800
0.852	1.000	0.148	2.900
0.853	1.000	0.147	2.700
0.853	1.000	0.147	2.800
0.853	1.000	0.147	2.900
0.854	1.000	0.146	2.700
0.854	1.000	0.146	2.800
0.854	1.000	0.146	2.900
0.855	1.000	0.145	2.700
0.855	1.000	0.145	2.800
0.855	1.000	0.145	2.900
0.856	1.000	0.144	2.700
0.856	1.000	0.144	2.800
0.856	1.000	0.144	2.900
0.857	1.000	0.143	2.700
0.857	1.000	0.143	2.800
0.857	1.000	0.143	2.900
0.858	1.000	0.142	2.700
0.858	1.000	0.142	2.800
0.858	1.000	0.142	2.900
0.859	1.000	0.141	2.700
0.859	1.000	0.141	2.800
0.859	1.000	0.141	2.900
0.860	1.000	0.140	2.700
0.860	1.000	0.140	2.800
0.860	1.000	0.140	2.900
0.861	1.000	0.139	2.700
0.861	1.000	0.139	2.800
0.861	1.000	0.139	2.900
0.862	1.000	0.138	2.700
0.862	1.000	0.138	2.800
0.862	1.000	0.138	2.900
0.863	1.000	0.137	2.700
0.863	1.000	0.137	2.800
0.863	1.000	0.137	2.900
0.864	1.000	0.136	2.800
0.864	1.000	0.136	2.900
0.865	1.000	0.135	2.800
0.865	1.000	0.135	2.900
0.866	1.000	0.134	2.800
0.866	1.000	0.134	2.900
0.867	1.000	0.133	2.800
0.867	1.000	0.133	2.900
0.868	1.000	0.132	2.800
0.868	1.000	0.132	2.900
0.869	1.000	0.131	2.800
0.869	1.000	0.131	2.900
0.870	1.000	0.130	2.800
0.870	1.000	0.130	2.900
0.871	1.000	0.129	2.800
0.871	1.000	0.129	2.900
0.872	1.000	0.128	2.800
0.872	1.000	0.128	2.900
0.873	1.000	0.127	2.800
0.873	1.000	0.127	2.900
0.874	1.000	0.126	2.800
0.874	1.000	0.126	2.900
0.875	1.000	0.125	2.800
0.875	1.000	0.125	2.900
0.876	1.000	0.124	2.800
0.876	1.000	0.124	2.900
0.877	1.000	0.123	2.900
0.878	1.000	0.122	2.900
0.879	1.000	0.121	2.900
0.880	1.000	0.120	2.900
0.881	1.000	0.119	2.900
0.882	1.000	0.118	2.900
0.883	1.000	0.117	2.900
0.884	1.000	0.116	2.900
0.885	1.000	0.115	2.900
0.886	1.000	0.114	2.900
0.887	1.000	0.113	2.900
